\citation{McCarthy}
\citation{Scheme75}
\citation{Scheme78}
\citation{Rabbit}
\citation{Rees82}
\citation{MITScheme}
\citation{Scheme311}
\citation{SICP}
\citation{RRRS}
\citation{R3RS}
\citation{R4RS}
\citation{IEEEScheme}
\citation{R5RS}
\citation{R6RS}
\citation{TImanual85}
\citation{MITScheme}
\citation{Rees84}
\citation{Scheme84}
\citation{CLtL}
\citation{Naur63}
\citation{rfc2119}
\citation{R5RS}
\citation{propertailrecursion}
\citation{Kohlbecker86}
\citation{hygienic}
\citation{Bawden88}
\citation{macrosthatwork}
\citation{syntacticabstraction}
\citation{life}
\citation{IEEE}
\citation{CLtL}
\citation{Penfield81}
\citation{howtoprint}
\citation{howtoread}
\citation{uax44}
\citation{uax44}
\citation{TAI}
\citation{Stoy77}
\citation{GasbichlerKnauelSperberKelsey2003}
\citation{srfi45}
\citation{R5RS}
\citation{R5RS}
\citation{srfi9}
\citation{srfi45}
\citation{R6RS}
\citation{srfi1}
\citation{srfi6}
\citation{srfi4}
\citation{Scheme84}
